<define-tag pagetitle>DLA-3047-1 avahi</define-tag>
<define-tag report_date>2022-6-07</define-tag>
<define-tag secrefs>CVE-2021-3468 CVE-2021-26720 Bug#984938</define-tag>
<define-tag packages>avahi</define-tag>
<define-tag isvulnerable>yes</define-tag>
<define-tag fixed>yes</define-tag>
<define-tag fixed-section>no</define-tag>

#use wml::debian::security

