<define-tag pagetitle>DLA-2937-1 gif2apng</define-tag>
<define-tag report_date>2022-03-07</define-tag>
<define-tag secrefs>CVE-2021-45909 CVE-2021-45910 CVE-2021-45911</define-tag>
<define-tag packages>gif2apng</define-tag>
<define-tag isvulnerable>yes</define-tag>
<define-tag fixed>yes</define-tag>
<define-tag fixed-section>no</define-tag>

#use wml::debian::security

