<define-tag pagetitle>DLA-2947-1 vim</define-tag>
<define-tag report_date>2022-3-11</define-tag>
<define-tag secrefs>CVE-2021-3984 CVE-2021-4019 CVE-2021-4069 CVE-2021-4193 CVE-2022-0213 CVE-2022-0319 CVE-2022-0368 CVE-2022-0554 CVE-2022-0361 CVE-2022-0408 CVE-2022-0685 CVE-2022-0714 CVE-2022-0359 CVE-2021-4192 CVE-2021-3872 CVE-2021-3927 CVE-2021-3928 CVE-2021-3973 CVE-2021-3974 CVE-2022-0729</define-tag>
<define-tag packages>vim</define-tag>
<define-tag isvulnerable>yes</define-tag>
<define-tag fixed>yes</define-tag>
<define-tag fixed-section>no</define-tag>

#use wml::debian::security

