<define-tag pagetitle>DSA-4948-1 aspell</define-tag>
<define-tag report_date>2021-8-01</define-tag>
<define-tag secrefs>CVE-2019-17544 CVE-2019-25051 Bug#991307</define-tag>
<define-tag packages>aspell</define-tag>
<define-tag isvulnerable>yes</define-tag>
<define-tag fixed>yes</define-tag>
<define-tag fixed-section>no</define-tag>

#use wml::debian::security



</dl>
