<define-tag pagetitle>DSA-4763-1 teeworlds</define-tag>
<define-tag report_date>2020-9-14</define-tag>
<define-tag secrefs>CVE-2020-12066</define-tag>
<define-tag packages>teeworlds</define-tag>
<define-tag isvulnerable>yes</define-tag>
<define-tag fixed>yes</define-tag>
<define-tag fixed-section>no</define-tag>

#use wml::debian::security



</dl>
