<define-tag pagetitle>DSA-4633-1 curl</define-tag>
<define-tag report_date>2020-2-22</define-tag>
<define-tag secrefs>CVE-2019-5436 CVE-2019-5481 CVE-2019-5482 Bug#929351 Bug#940009 Bug#940010</define-tag>
<define-tag packages>curl</define-tag>
<define-tag isvulnerable>yes</define-tag>
<define-tag fixed>yes</define-tag>
<define-tag fixed-section>no</define-tag>

#use wml::debian::security



</dl>
