<define-tag pagetitle>DLA-2671-1 rxvt-unicode</define-tag>
<define-tag report_date>2021-05-30</define-tag>
<define-tag secrefs>CVE-2021-33477 Bug#988763</define-tag>
<define-tag packages>rxvt-unicode</define-tag>
<define-tag isvulnerable>yes</define-tag>
<define-tag fixed>yes</define-tag>
<define-tag fixed-section>no</define-tag>

#use wml::debian::security

