<define-tag pagetitle>DSA-5321-1 sudo</define-tag>
<define-tag report_date>2023-1-18</define-tag>
<define-tag secrefs>CVE-2023-22809</define-tag>
<define-tag packages>sudo</define-tag>
<define-tag isvulnerable>yes</define-tag>
<define-tag fixed>yes</define-tag>
<define-tag fixed-section>no</define-tag>

#use wml::debian::security



</dl>
