<define-tag pagetitle>DSA-5382-1 cairosvg</define-tag>
<define-tag report_date>2023-4-05</define-tag>
<define-tag secrefs>CVE-2023-27586 Bug#1033295</define-tag>
<define-tag packages>cairosvg</define-tag>
<define-tag isvulnerable>yes</define-tag>
<define-tag fixed>yes</define-tag>
<define-tag fixed-section>no</define-tag>

#use wml::debian::security



</dl>
