<define-tag pagetitle>DSA-5334-1 varnish</define-tag>
<define-tag report_date>2023-1-29</define-tag>
<define-tag secrefs>CVE-2022-45060 Bug#1023751</define-tag>
<define-tag packages>varnish</define-tag>
<define-tag isvulnerable>yes</define-tag>
<define-tag fixed>yes</define-tag>
<define-tag fixed-section>no</define-tag>

#use wml::debian::security



</dl>
