<define-tag pagetitle>DLA-1053-1 firefox-esr</define-tag>
<define-tag report_date>2017-8-12</define-tag>
<define-tag secrefs>CVE-2017-7753 CVE-2017-7779 CVE-2017-7784 CVE-2017-7785 CVE-2017-7786 CVE-2017-7787 CVE-2017-7791 CVE-2017-7792 CVE-2017-7798 CVE-2017-7800 CVE-2017-7801 CVE-2017-7802 CVE-2017-7803 CVE-2017-7807 CVE-2017-7809</define-tag>
<define-tag packages>firefox-esr</define-tag>
<define-tag isvulnerable>yes</define-tag>
<define-tag fixed>yes</define-tag>
<define-tag fixed-section>no</define-tag>

#use wml::debian::security

