<define-tag pagetitle>DLA-1049-1 libsndfile</define-tag>
<define-tag report_date>2017-8-7</define-tag>
<define-tag secrefs>CVE-2017-12562 Bug##869166</define-tag>
<define-tag packages>libsndfile</define-tag>
<define-tag isvulnerable>yes</define-tag>
<define-tag fixed>yes</define-tag>
<define-tag fixed-section>no</define-tag>

#use wml::debian::security

