<define-tag pagetitle>DLA-3494-1 ruby-doorkeeper</define-tag>
<define-tag report_date>2023-07-12</define-tag>
<define-tag secrefs>CVE-2023-34246</define-tag>
<define-tag packages>ruby-doorkeeper</define-tag>
<define-tag isvulnerable>yes</define-tag>
<define-tag fixed>yes</define-tag>
<define-tag fixed-section>no</define-tag>

#use wml::debian::security
