<define-tag pagetitle>DLA-3335-1 asterisk</define-tag>
<define-tag report_date>2023-2-22</define-tag>
<define-tag secrefs>CVE-2022-23537 CVE-2022-23547 CVE-2022-31031 CVE-2022-37325 CVE-2022-39244 CVE-2022-39269 CVE-2022-42705 CVE-2022-42706</define-tag>
<define-tag packages>asterisk</define-tag>
<define-tag isvulnerable>yes</define-tag>
<define-tag fixed>yes</define-tag>
<define-tag fixed-section>no</define-tag>

#use wml::debian::security

