<define-tag pagetitle>DLA-3491-1 erlang</define-tag>
<define-tag report_date>2023-7-11</define-tag>
<define-tag secrefs>CVE-2022-37026 Bug#1024632</define-tag>
<define-tag packages>erlang</define-tag>
<define-tag isvulnerable>yes</define-tag>
<define-tag fixed>yes</define-tag>
<define-tag fixed-section>no</define-tag>

#use wml::debian::security

