<define-tag pagetitle>DLA-3509-1 libmail-dkim-perl</define-tag>
<define-tag report_date>2023-7-27</define-tag>
<define-tag secrefs>Bug#1039489</define-tag>
<define-tag packages>libmail-dkim-perl</define-tag>
<define-tag isvulnerable>yes</define-tag>
<define-tag fixed>yes</define-tag>
<define-tag fixed-section>no</define-tag>

#use wml::debian::security

