<define-tag pagetitle>DLA-1252-1 couchdb</define-tag>
<define-tag report_date>2018-1-21</define-tag>
<define-tag secrefs>CVE-2017-12635 CVE-2017-12636</define-tag>
<define-tag packages>couchdb</define-tag>
<define-tag isvulnerable>yes</define-tag>
<define-tag fixed>yes</define-tag>
<define-tag fixed-section>no</define-tag>

#use wml::debian::security

