<define-tag pagetitle>DLA-1438-1 opencv</define-tag>
<define-tag report_date>2018-7-22</define-tag>
<define-tag secrefs>CVE-2016-1516 CVE-2017-12597 CVE-2017-12598 CVE-2017-12599 CVE-2017-12601 CVE-2017-12603 CVE-2017-12604 CVE-2017-12605 CVE-2017-12606 CVE-2017-12862 CVE-2017-12863 CVE-2017-12864 CVE-2017-14136 CVE-2017-17760 CVE-2017-1000450 CVE-2018-5268 CVE-2018-5269</define-tag>
<define-tag packages>opencv</define-tag>
<define-tag isvulnerable>yes</define-tag>
<define-tag fixed>yes</define-tag>
<define-tag fixed-section>no</define-tag>

#use wml::debian::security

