<define-tag pagetitle>DLA-1346-1 tiff</define-tag>
<define-tag report_date>2018-4-16</define-tag>
<define-tag secrefs>CVE-2018-7456 Bug#891288</define-tag>
<define-tag packages>tiff</define-tag>
<define-tag isvulnerable>yes</define-tag>
<define-tag fixed>yes</define-tag>
<define-tag fixed-section>no</define-tag>

#use wml::debian::security

