<define-tag pagetitle>DSA-4453-1 openjdk-8</define-tag>
<define-tag report_date>2019-5-29</define-tag>
<define-tag secrefs>CVE-2019-2602 CVE-2019-2684 CVE-2019-2698</define-tag>
<define-tag packages>openjdk-8</define-tag>
<define-tag isvulnerable>yes</define-tag>
<define-tag fixed>yes</define-tag>
<define-tag fixed-section>no</define-tag>

#use wml::debian::security



</dl>
