<define-tag pagetitle>DSA-4502-1 ffmpeg</define-tag>
<define-tag report_date>2019-8-16</define-tag>
<define-tag secrefs>CVE-2019-12730</define-tag>
<define-tag packages>ffmpeg</define-tag>
<define-tag isvulnerable>yes</define-tag>
<define-tag fixed>yes</define-tag>
<define-tag fixed-section>no</define-tag>

#use wml::debian::security



</dl>
