<define-tag pagetitle>DSA-5170-1 nodejs</define-tag>
<define-tag report_date>2022-6-27</define-tag>
<define-tag secrefs>CVE-2021-22959 CVE-2021-22960 CVE-2021-44532 CVE-2021-44533 CVE-2022-21824 CVE-2021-44531</define-tag>
<define-tag packages>nodejs</define-tag>
<define-tag isvulnerable>yes</define-tag>
<define-tag fixed>yes</define-tag>
<define-tag fixed-section>no</define-tag>

#use wml::debian::security



</dl>
