<define-tag pagetitle>DSA-5077-1 librecad</define-tag>
<define-tag report_date>2022-2-15</define-tag>
<define-tag secrefs>CVE-2021-21898 CVE-2021-21899 CVE-2021-21900 CVE-2021-45341 CVE-2021-45342 CVE-2021-45343 Bug#1004518</define-tag>
<define-tag packages>librecad</define-tag>
<define-tag isvulnerable>yes</define-tag>
<define-tag fixed>yes</define-tag>
<define-tag fixed-section>no</define-tag>

#use wml::debian::security



</dl>
