<define-tag pagetitle>DSA-5207-1 linux</define-tag>
<define-tag report_date>2022-8-15</define-tag>
<define-tag secrefs>CVE-2022-2585 CVE-2022-2586 CVE-2022-2588 CVE-2022-26373 CVE-2022-29900 CVE-2022-29901 CVE-2022-36879 CVE-2022-36946</define-tag>
<define-tag packages>linux</define-tag>
<define-tag isvulnerable>yes</define-tag>
<define-tag fixed>yes</define-tag>
<define-tag fixed-section>no</define-tag>

#use wml::debian::security



</dl>
