<define-tag pagetitle>DLA-1872-1 python-django</define-tag>
<define-tag report_date>2019-08-06</define-tag>
<define-tag secrefs>CVE-2019-14232 CVE-2019-14233</define-tag>
<define-tag packages>python-django</define-tag>
<define-tag isvulnerable>yes</define-tag>
<define-tag fixed>yes</define-tag>
<define-tag fixed-section>no</define-tag>

#use wml::debian::security
